{
	"info": {
		"_postman_id": "308e8fc8-b5cd-40f1-9a82-028d171c7267",
		"name": "ShipmentService",
		"schema": "https://schema.getpostman.com/json/collection/v2.1.0/collection.json"
	},
	"item": [
		{
			"name": "Create Shipment API",
			"request": {
				"method": "POST",
				"header": [],
				"body": {
					"mode": "raw",
					"raw": "{ \n      \"airWayBillNo\":\"Bill1234\",\n      \"shippingOrderId\":\"shippingorder123\",\n      \"label\": {\n        \"labelId\": \"uuid1234567899\",\n        \"labelType\": \"QR_2DBAR\"\n      },\n      \"externalShipmentId\": \"HYDROS123456ORP\",\n      \"supplier\": {\n        \"id\": \"user_id\",\n        \"name\":\"NAME SUP\",\n        \"locationId\": \"warehouse_id\",\n        \"location\":\"warehosue address\"\n      },\n      \"receiver\": {\n        \"id\": \"user_id\",\n        \"locationId\": \"warehouse_id\"\n      },\n      \"shippingDate\": \"2021-01-01T18:30:00.000Z\",\n      \"expectedDeliveryDate\": \"2021-01-03T18:30:00.000Z\",\n      \"actualDeliveryDate\": \"2021-01-04T18:30:00.000Z\",\n      \"status\": \"PROCESSING_CREATED_SHIPPED_RECEIVED_LOST_DAMAGED\",\n      \"transactionIds\": [\n        \"tx_id 1\",\n        \"tx_id 2\",\n        \"tx_id 3\"\n      ],\n      \"products\": [\n        {\n          \"productId\": \"product_id 1\",\n          \"productQuantity\": 345,\n          \"productName\":\"NAME PRODUCT\",\n          \"manufacturerName\":\"MAN1234\",\n          \"labelId\":\"label1234\"\n        }\n      ],\n \"poId\": \"po1234565\"\n}   ",
					"options": {
						"raw": {
							"language": "json"
						}
					}
				},
				"url": {
					"raw": "http://localhost:3013/shipmentordermanagement/api/shipment/createShipment",
					"protocol": "http",
					"host": [
						"localhost"
					],
					"port": "3013",
					"path": [
						"shipmentordermanagement",
						"api",
						"shipment",
						"createShipment"
					]
				}
			},
			"response": []
		},
		{
			"name": "update Shipment Status",
			"request": {
				"method": "POST",
				"header": [],
				"body": {
					"mode": "raw",
					"raw": "{\n    \"update\":\"Delivered\"\n}",
					"options": {
						"raw": {
							"language": "json"
						}
					}
				},
				"url": {
					"raw": "http://localhost:3013/shipmentordermanagement/api/shipment/updateShipmentStatus?shipmentId=SH7TUC_VZIKD",
					"protocol": "http",
					"host": [
						"localhost"
					],
					"port": "3013",
					"path": [
						"shipmentordermanagement",
						"api",
						"shipment",
						"updateShipmentStatus"
					],
					"query": [
						{
							"key": "shipmentId",
							"value": "SH7TUC_VZIKD"
						}
					]
				}
			},
			"response": []
		},
		{
			"name": "viewPoShipments",
			"request": {
				"auth": {
					"type": "noauth"
				},
				"method": "GET",
				"header": [
					{
						"key": "Authorization",
						"value": "Bearer eyJhbGciOiJIUzI1NiIsInR5cCI6IkpXVCJ9.eyJpZCI6ImVtcC0xOGdwcDFrY2Nra2U3dnJ3aCIsImZpcnN0TmFtZSI6IkhlbWEiLCJlbWFpbElkIjoiaGVtYUBzdGF0d2lnLmNvbSIsInJvbGUiOiJwb3dlclVzZXIiLCJpYXQiOjE2MTI2MTQ5NjUsImV4cCI6MTYxMjYyMjE2NX0.bAUu7QdYuoLsfVaRMHB_KKb6OCh8BacuUkUKtWqvj2U",
						"type": "text"
					}
				],
				"url": {
					"raw": "http://localhost:3013/shipmentordermanagement/api/shipment/viewPoShipments?poId=po1234565",
					"protocol": "http",
					"host": [
						"localhost"
					],
					"port": "3013",
					"path": [
						"shipmentordermanagement",
						"api",
						"shipment",
						"viewPoShipments"
					],
					"query": [
						{
							"key": "poId",
							"value": "po1234565"
						}
					]
				}
			},
			"response": []
		},
		{
			"name": "viewShipment by ShipmentId",
			"request": {
				"auth": {
					"type": "noauth"
				},
				"method": "GET",
				"header": [
					{
						"key": "theLedgerToken",
						"value": "eyJhbGciOiJIUzI1NiIsInR5cCI6IkpXVCJ9.eyJpZCI6ImVtcC0xOGdwcDFrY2Nra2U3dnJ3aCIsImZpcnN0TmFtZSI6IkhlbWEiLCJlbWFpbElkIjoiaGVtYUBzdGF0d2lnLmNvbSIsInJvbGUiOiJwb3dlclVzZXIiLCJpYXQiOjE2MTI2MTQ5NjUsImV4cCI6MTYxMjYyMjE2NX0.bAUu7QdYuoLsfVaRMHB_KKb6OCh8BacuUkUKtWqvj2U",
						"type": "text",
						"disabled": true
					},
					{
						"warning": "This is a duplicate header and will be overridden by the Authorization header generated by Postman.",
						"key": "Authorization",
						"value": "Bearer eyJhbGciOiJIUzI1NiIsInR5cCI6IkpXVCJ9.eyJpZCI6ImVtcC0xOGdwcDFrY2Nra2U3dnJ3aCIsImZpcnN0TmFtZSI6IkhlbWEiLCJlbWFpbElkIjoiaGVtYUBzdGF0d2lnLmNvbSIsInJvbGUiOiJwb3dlclVzZXIiLCJpYXQiOjE2MTI2MTQ5NjUsImV4cCI6MTYxMjYyMjE2NX0.bAUu7QdYuoLsfVaRMHB_KKb6OCh8BacuUkUKtWqvj2U",
						"type": "text"
					}
				],
				"url": {
					"raw": "http://localhost:3013/shipmentordermanagement/api/shipment/viewShipment?shipmentId=SH7TUC_VZIKD",
					"protocol": "http",
					"host": [
						"localhost"
					],
					"port": "3013",
					"path": [
						"shipmentordermanagement",
						"api",
						"shipment",
						"viewShipment"
					],
					"query": [
						{
							"key": "shipmentId",
							"value": "SH7TUC_VZIKD"
						}
					]
				}
			},
			"response": []
		},
		{
			"name": "fetchShipments",
			"request": {
				"method": "GET",
				"header": [
					{
						"key": "Authorization",
						"value": "Bearer eyJhbGciOiJIUzI1NiIsInR5cCI6IkpXVCJ9.eyJpZCI6ImVtcC0xOGdwcDFrY2Nra2U3dnJ3aCIsImZpcnN0TmFtZSI6IkhlbWEiLCJlbWFpbElkIjoiaGVtYUBzdGF0d2lnLmNvbSIsInJvbGUiOiJwb3dlclVzZXIiLCJpYXQiOjE2MTI2MTQ5NjUsImV4cCI6MTYxMjYyMjE2NX0.bAUu7QdYuoLsfVaRMHB_KKb6OCh8BacuUkUKtWqvj2U",
						"type": "text"
					}
				],
				"url": {
					"raw": "http://localhost:3013/shipmentordermanagement/api/shipment/fetchShipments",
					"protocol": "http",
					"host": [
						"localhost"
					],
					"port": "3013",
					"path": [
						"shipmentordermanagement",
						"api",
						"shipment",
						"fetchShipments"
					]
				}
			},
			"response": []
		},
		{
			"name": "fetchALLShipments",
			"request": {
				"method": "GET",
				"header": [
					{
						"key": "Authorization",
						"value": "Bearer eyJhbGciOiJIUzI1NiIsInR5cCI6IkpXVCJ9.eyJpZCI6ImVtcC0xOGdwcDFrY2Nra2U3dnJ3aCIsImZpcnN0TmFtZSI6IkhlbWEiLCJlbWFpbElkIjoiaGVtYUBzdGF0d2lnLmNvbSIsInJvbGUiOiJwb3dlclVzZXIiLCJpYXQiOjE2MTI2MTQ5NjUsImV4cCI6MTYxMjYyMjE2NX0.bAUu7QdYuoLsfVaRMHB_KKb6OCh8BacuUkUKtWqvj2U",
						"type": "text"
					}
				],
				"url": {
					"raw": "http://localhost:3013/shipmentordermanagement/api/shipment/fetchAllShipments",
					"protocol": "http",
					"host": [
						"localhost"
					],
					"port": "3013",
					"path": [
						"shipmentordermanagement",
						"api",
						"shipment",
						"fetchAllShipments"
					]
				}
			},
			"response": []
		}
	]
}